<svg width="27" height="33" viewBox="0 0 27 33" fill="none" xmlns="http://www.w3.org/2000/svg">
<path d="M22.3853 17.73C22.3484 13.7012 25.7476 11.7412 25.903 11.65C23.9779 8.89624 20.994 8.51999 19.9455 8.48999C17.4394 8.23124 15.0084 9.96124 13.7318 9.96124C12.4297 9.96124 10.4638 8.51499 8.34503 8.55749C5.61851 8.59874 3.06781 10.1475 1.66888 12.5525C-1.21817 17.4562 0.935011 24.6625 3.70103 28.6262C5.08467 30.5675 6.70147 32.735 8.81771 32.6587C10.8881 32.575 11.6614 31.3637 14.1599 31.3637C16.6354 31.3637 17.3616 32.6587 19.5199 32.61C21.7419 32.575 23.1408 30.66 24.4761 28.7012C26.075 26.4762 26.7172 24.285 26.7427 24.1725C26.6904 24.155 22.4274 22.5587 22.3853 17.73Z" fill="black"/>
<path d="M18.3083 5.88249C19.4218 4.51624 20.1837 2.65749 19.9722 0.77124C18.3605 0.84124 16.3449 1.86499 15.1843 3.20124C14.1574 4.37874 13.24 6.30874 13.477 8.12374C15.2875 8.25624 17.1463 7.22749 18.3083 5.88249Z" fill="black"/>
</svg>
